^C:\USERS\RALUCA\DESKTOP\FACULTATE\EMC\CHEMICAL-FORMULAS\CHEMICAL FORMULAS\CHEMICAL FORMULAS\CHEMICALFORMULA.CPP
/c /ZI /JMC /nologo /W3 /WX- /diagnostics:classic /Od /Oy- /D WIN32 /D _DEBUG /D _CONSOLE /D _UNICODE /D UNICODE /Gm- /EHsc /RTC1 /MDd /GS /fp:precise /permissive- /Zc:wchar_t /Zc:forScope /Zc:inline /Fo"DEBUG\\" /Fd"DEBUG\VC141.PDB" /Gd /TP /analyze- /FC C:\USERS\RALUCA\DESKTOP\FACULTATE\EMC\CHEMICAL-FORMULAS\CHEMICAL FORMULAS\CHEMICAL FORMULAS\CHEMICALFORMULA.CPP
^C:\USERS\RALUCA\DESKTOP\FACULTATE\EMC\CHEMICAL-FORMULAS\CHEMICAL FORMULAS\CHEMICAL FORMULAS\MAIN.CPP
/c /ZI /JMC /nologo /W3 /WX- /diagnostics:classic /Od /Oy- /D WIN32 /D _DEBUG /D _CONSOLE /D _UNICODE /D UNICODE /Gm- /EHsc /RTC1 /MDd /GS /fp:precise /permissive- /Zc:wchar_t /Zc:forScope /Zc:inline /Fo"DEBUG\\" /Fd"DEBUG\VC141.PDB" /Gd /TP /analyze- /FC C:\USERS\RALUCA\DESKTOP\FACULTATE\EMC\CHEMICAL-FORMULAS\CHEMICAL FORMULAS\CHEMICAL FORMULAS\MAIN.CPP
